…
### Dropping applications with pending status

```r
patent_data <- patent_data %>%
  filter(disposal_type != "PEND")
```

```r
patent_data
```

    ## # A tibble: 1,688,717 × 16
    ##    application_number filing_date examiner_name_last examiner_name_first
    ##    <chr>              <date>      <chr>              <chr>
    ##  1 08284457           2000-01-26  HOWARD             JACQUELINE
    ##  2 08413193           2000-10-11  YILDIRIM           BEKIR
    ##  3 08531853           2000-05-17  HAMILTON           CYNTHIA
    ##  4 08637752           2001-07-20  MOSHER             MARY
    ##  5 08682726           2000-04-10  BARR               MICHAEL
    ##  6 08687412           2000-04-28  GRAY               LINDA
    ##  7 08765941           2000-06-23  FORD               VANESSA
    ##  8 08776818           2000-02-04  STRZELECKA         TERESA
    ##  9 08809677           2002-02-20  KIM                SUN
    ## 10 08836939           2000-06-13  WOOD               ELIZABETH
    ## # ℹ 1,688,707 more rows
    ## # ℹ 12 more variables: examiner_name_middle <chr>, examiner_id <dbl>,
    ## #   examiner_art_unit <dbl>, uspc_class <chr>, uspc_subclass <chr>,
    ## #   patent_number <chr>, patent_issue_date <date>, abandon_date <date>,
    ## #   disposal_type <chr>, appl_status_code <dbl>, appl_status_date <chr>,
    ## #   tc <dbl>
…
    ##            used  (Mb) gc trigger   (Mb)  max used   (Mb)
    ## Ncells  4513276 241.1    8243154  440.3   5979412  319.4
    ## Vcells 47169832 359.9  141058058 1076.2 140056141 1068.6

## Viewing the cleaned dataset

```r
patent_data
```

    ## # A tibble: 1,688,717 × 19
    ##    application_number filing_date examiner_name_last examiner_name_first
    ##    <chr>              <date>      <chr>              <chr>
    ##  1 08284457           2000-01-26  HOWARD             JACQUELINE
    ##  2 08413193           2000-10-11  YILDIRIM           BEKIR
    ##  3 08531853           2000-05-17  HAMILTON           CYNTHIA
    ##  4 08637752           2001-07-20  MOSHER             MARY
    ##  5 08682726           2000-04-10  BARR               MICHAEL
    ##  6 08687412           2000-04-28  GRAY               LINDA
    ##  7 08765941           2000-06-23  FORD               VANESSA
    ##  8 08776818           2000-02-04  STRZELECKA         TERESA
    ##  9 08809677           2002-02-20  KIM                SUN
    ## 10 08836939           2000-06-13  WOOD               ELIZABETH
    ## # ℹ 1,688,707 more rows
    ## # ℹ 15 more variables: examiner_name_middle <chr>, examiner_id <dbl>,
    ## #   examiner_art_unit <dbl>, uspc_class <chr>, uspc_subclass <chr>,
    ## #   patent_number <chr>, patent_issue_date <date>, abandon_date <date>,
    ## #   disposal_type <chr>, appl_status_code <dbl>, appl_status_date <chr>,
    ## #   tc <dbl>, gender <chr>, race <chr>, app_proc_time <dbl>
…
```r
patent_data <- patent_data %>%
  relocate(examiner_id, .before = application_number) %>%
  mutate(examiner_id = as.character(examiner_id)) %>%
  drop_na(examiner_id) %>%
  rename(name = examiner_id)

patent_data
```

    ## # A tibble: 1,684,963 × 19
    ##    name  application_number filing_date examiner_name_last examiner_name_first
    ##    <chr> <chr>              <date>      <chr>              <chr>
    ##  1 96082 08284457           2000-01-26  HOWARD             JACQUELINE
    ##  2 87678 08413193           2000-10-11  YILDIRIM           BEKIR
    ##  3 63213 08531853           2000-05-17  HAMILTON           CYNTHIA
    ##  4 73788 08637752           2001-07-20  MOSHER             MARY
    ##  5 77294 08682726           2000-04-10  BARR               MICHAEL
    ##  6 68606 08687412           2000-04-28  GRAY               LINDA
    ##  7 97543 08765941           2000-06-23  FORD               VANESSA
    ##  8 98714 08776818           2000-02-04  STRZELECKA         TERESA
    ##  9 65530 08809677           2002-02-20  KIM                SUN
    ## 10 77112 08836939           2000-06-13  WOOD               ELIZABETH
    ## # ℹ 1,684,953 more rows
    ## # ℹ 14 more variables: examiner_name_middle <chr>, examiner_art_unit <dbl>,
    ## #   uspc_class <chr>, uspc_subclass <chr>, patent_number <chr>,
    ## #   patent_issue_date <date>, abandon_date <date>, disposal_type <chr>,
    ## #   appl_status_code <dbl>, appl_status_date <chr>, tc <dbl>, gender <chr>,
    ## #   race <chr>, app_proc_time <dbl>
…
node_data
```

    ## # A tibble: 2,489 × 22
    ##    name  application_number filing_date examiner_name_last examiner_name_first
    ##    <chr> <chr>              <date>      <chr>              <chr>
    ##  1 83670 09856864           2001-07-05  LEE                JAE
    ##  2 97910 09486362           2000-02-28  COUNTS             GARY
    ##  3 73920 10373614           2003-02-25  HOBBS              LISA
    ##  4 67226 09483069           2000-01-14  ZHEN               LI
    ##  5 80730 10345713           2003-01-16  JOY                DAVID
    ##  6 75615 09943424           2001-08-30  DECKER             CASSANDRA
    ##  7 62152 10486872           2004-08-12  SIDDIQUEE          MUHAMMAD
    ##  8 69098 10491238           2004-11-15  VASISTH            VISHAL
    ##  9 67690 09504184           2000-02-15  MCINTOSH III       TRAVISS
    ## 10 74061 10480716           2004-07-02  TRAN               THINH
    ## # ℹ 2,479 more rows
    ## # ℹ 17 more variables: examiner_name_middle <chr>, examiner_art_unit <dbl>,
    ## #   uspc_class <chr>, uspc_subclass <chr>, patent_number <chr>,
    ## #   patent_issue_date <date>, abandon_date <date>, disposal_type <chr>,
    ## #   appl_status_code <dbl>, appl_status_date <chr>, tc <fct>, gender <chr>,
    ## #   race <chr>, app_proc_time <dbl>, degree <dbl>, betweenness <dbl>,
    ## #   closeness <dbl>
…
```r
ggsave("model_coeffs.png", model_coeffs, width = 16, height = 9)

best_model
```

    ## # A tibble: 24 × 7
    ##    term       estimate std.error statistic  p.value r_squared centrality_measure
    ##    <chr>         <dbl>     <dbl>     <dbl>    <dbl>     <dbl> <chr>
    ##  1 (Intercep…   1970.     122.      16.2   1.53e-55     0.135 degree * gender *…
    ##  2 degree         12.6      5.50     2.29  2.21e- 2     0.135 degree * gender *…
    ##  3 gendermale    123.     119.       1.04  3.00e- 1     0.135 degree * gender *…
    ##  4 raceblack     497.     311.       1.60  1.10e- 1     0.135 degree * gender *…
    ##  5 raceHispa…    213.     398.       0.536 5.92e- 1     0.135 degree * gender *…
    ##  6 raceother   -1251.    1415.      -0.884 3.77e- 1     0.135 degree * gender *…
    ##  7 racewhite     165.     127.       1.30  1.95e- 1     0.135 degree * gender *…
    ##  8 disposal_…    870.      57.4     15.1   3.15e-49     0.135 degree * gender *…
    ##  9 tc1700       -448.      86.0     -5.21  2.06e- 7     0.135 degree * gender *…
    ## 10 tc2100       -231.      87.4     -2.64  8.28e- 3     0.135 degree * gender *…
    ## # ℹ 14 more rows
…
