…
``` r
data <- data %>%
  mutate(label = str_c(
    `First Name`,
    str_sub(`Last Name`, 1, 1),
    row_number()
  )) %>%
  select(label, Company) %>%
  drop_na()

data
```

    ## # A tibble: 3,663 × 2
    ##    label        Company                                         
    ##    <chr>        <chr>                                           
    ##  1 ScottM1      Stadia Ventures                                 
    ##  2 AlexanderD2  McGill University                               
    ##  3 RyanR3       2U                                              
    ##  4 RushitS4     Wayfair                                         
    ##  5 JohnC5       Bain & Company                                  
    ##  6 AlessandroF6 ASP Alumni Association - Alta Scuola Politecnica
    ##  7 EricB7       GBK Collective                                  
    ##  8 JakeS8       Bain & Company                                  
    ##  9 AlissaM9     PSP Investments                                 
    ## 10 AlexandreP10 PSP Investments                                 
    ## # ℹ 3,653 more rows
…
    ## # A tibble: 1 × 1
    ##       n
    ##   <int>
    ## 1  3663

``` r
data %>%
  group_by(Company) %>%
  count(sort = TRUE)
```

    ## # A tibble: 2,287 × 2
    ## # Groups:   Company [2,287]
    ##    Company                           n
    ##    <chr>                         <int>
    ##  1 Bain & Company                  155
    ##  2 Deloitte                         84
    ##  3 EY                               79
    ##  4 ZS                               34
    ##  5 Boston Consulting Group (BCG)    30
    ##  6 McKinsey & Company               30
    ##  7 American Express                 29
    ##  8 Accenture                        27
    ##  9 KPMG                             27
    ## 10 KPMG India                       27
    ## # ℹ 2,277 more rows
…
connection_df
```

    ## # A tibble: 22,355 × 3
    ##    from        to            company  
    ##    <chr>       <chr>         <chr>    
    ##  1 KritikaS770 DhruvG1276    Accenture
    ##  2 KritikaS770 AkhilA1373    Accenture
    ##  3 KritikaS770 DeepakS1380   Accenture
    ##  4 KritikaS770 KeshavG1486   Accenture
    ##  5 KritikaS770 AfifB1625     Accenture
    ##  6 KritikaS770 KanikaC1823   Accenture
    ##  7 KritikaS770 SiddhiK1848   Accenture
    ##  8 KritikaS770 KritikaS1904  Accenture
    ##  9 KritikaS770 SakshiY1936   Accenture
    ## 10 KritikaS770 VanshitaG2000 Accenture
    ## # ℹ 22,345 more rows
…
