…
    ##            used  (Mb) gc trigger   (Mb)  max used  (Mb)
    ## Ncells  4833852 258.2    8179000  436.9   8179000 436.9
    ## Vcells 58120393 443.5  138229730 1054.7 114539890 873.9

## Viewing the cleaned dataset

``` r
patent_data
```

    ## # A tibble: 2,018,477 × 21
    ##    application_number filing_date examiner_name_last examiner_name_first
    ##    <chr>              <date>      <chr>              <chr>              
    ##  1 08284457           2000-01-26  HOWARD             JACQUELINE         
    ##  2 08413193           2000-10-11  YILDIRIM           BEKIR              
    ##  3 08531853           2000-05-17  HAMILTON           CYNTHIA            
    ##  4 08637752           2001-07-20  MOSHER             MARY               
    ##  5 08682726           2000-04-10  BARR               MICHAEL            
    ##  6 08687412           2000-04-28  GRAY               LINDA              
    ##  7 08716371           2004-01-26  MCMILLIAN          KARA               
    ##  8 08765941           2000-06-23  FORD               VANESSA            
    ##  9 08776818           2000-02-04  STRZELECKA         TERESA             
    ## 10 08809677           2002-02-20  KIM                SUN                
    ## # ℹ 2,018,467 more rows
    ## # ℹ 17 more variables: examiner_name_middle <chr>, examiner_id <dbl>,
    ## #   examiner_art_unit <dbl>, uspc_class <chr>, uspc_subclass <chr>,
    ## #   patent_number <chr>, patent_issue_date <date>, abandon_date <date>,
    ## #   disposal_type <chr>, appl_status_code <dbl>, appl_status_date <chr>,
    ## #   tc <dbl>, gender <chr>, race <chr>, earliest_date <date>,
    ## #   latest_date <date>, tenure_days <dbl>
…
To select the workgroups of interest, we first create a new column
`workgroup` to store the first 3 digits of the `examiner_art_unit`
column. We then count the number of applications in each workgroup and
sort them in descending order to see which workgroups to choose.

``` r
patent_data <- patent_data %>%
  mutate(workgroup = examiner_art_unit %/% 10)

patent_data %>%
  count(workgroup, sort = TRUE)
```

    ## # A tibble: 38 × 2
    ##    workgroup      n
    ##        <dbl>  <int>
    ##  1       162 141390
    ##  2       179 133424
    ##  3       164  93342
    ##  4       176  91376
    ##  5       163  90860
    ##  6       161  89795
    ##  7       177  83266
    ##  8       172  79195
    ##  9       171  76544
    ## 10       174  75598
    ## # ℹ 28 more rows
…
With the workgroups chosen, we filter the data to only include
applications from these workgroups. We then create some summary plots to
compare the two.

``` r
workgroups_chosen <- c(164, 176)

workgroup_patent_data <- patent_data %>%
  filter(workgroup %in% workgroups_chosen)

workgroup_patent_data
```

    ## # A tibble: 184,718 × 22
    ##    application_number filing_date examiner_name_last examiner_name_first
    ##    <chr>              <date>      <chr>              <chr>              
    ##  1 08284457           2000-01-26  HOWARD             JACQUELINE         
    ##  2 08413193           2000-10-11  YILDIRIM           BEKIR              
    ##  3 08637752           2001-07-20  MOSHER             MARY               
    ##  4 08682726           2000-04-10  BARR               MICHAEL            
    ##  5 08765941           2000-06-23  FORD               VANESSA            
    ##  6 08901519           2000-09-26  DENT               ALANA              
    ##  7 09000004           2001-05-02  SAUNDERS           DAVID              
    ##  8 09011027           2000-05-01  LANDSMAN           ROBERT             
    ##  9 09077252           2000-05-20  PADMANABHAN        KARTIC             
    ## 10 09077740           2000-01-12  NOLAN              PATRICK            
    ## # ℹ 184,708 more rows
    ## # ℹ 18 more variables: examiner_name_middle <chr>, examiner_id <dbl>,
    ## #   examiner_art_unit <dbl>, uspc_class <chr>, uspc_subclass <chr>,
    ## #   patent_number <chr>, patent_issue_date <date>, abandon_date <date>,
    ## #   disposal_type <chr>, appl_status_code <dbl>, appl_status_date <chr>,
    ## #   tc <dbl>, gender <chr>, race <chr>, earliest_date <date>,
    ## #   latest_date <date>, tenure_days <dbl>, workgroup <dbl>
…
``` r
patent_data <- patent_data %>%
  relocate(examiner_id, .before = application_number) %>%
  mutate(examiner_id = as.character(examiner_id)) %>%
  drop_na(examiner_id) %>%
  rename(name = examiner_id)

patent_data
```

    ## # A tibble: 2,009,248 × 22
    ##    name  application_number filing_date examiner_name_last examiner_name_first
    ##    <chr> <chr>              <date>      <chr>              <chr>              
    ##  1 96082 08284457           2000-01-26  HOWARD             JACQUELINE         
    ##  2 87678 08413193           2000-10-11  YILDIRIM           BEKIR              
    ##  3 63213 08531853           2000-05-17  HAMILTON           CYNTHIA            
    ##  4 73788 08637752           2001-07-20  MOSHER             MARY               
    ##  5 77294 08682726           2000-04-10  BARR               MICHAEL            
    ##  6 68606 08687412           2000-04-28  GRAY               LINDA              
    ##  7 89557 08716371           2004-01-26  MCMILLIAN          KARA               
    ##  8 97543 08765941           2000-06-23  FORD               VANESSA            
    ##  9 98714 08776818           2000-02-04  STRZELECKA         TERESA             
    ## 10 65530 08809677           2002-02-20  KIM                SUN                
    ## # ℹ 2,009,238 more rows
    ## # ℹ 17 more variables: examiner_name_middle <chr>, examiner_art_unit <dbl>,
    ## #   uspc_class <chr>, uspc_subclass <chr>, patent_number <chr>,
    ## #   patent_issue_date <date>, abandon_date <date>, disposal_type <chr>,
    ## #   appl_status_code <dbl>, appl_status_date <chr>, tc <dbl>, gender <chr>,
    ## #   race <chr>, earliest_date <date>, latest_date <date>, tenure_days <dbl>,
    ## #   workgroup <dbl>
…
Looking only at the workgroup data

``` r
workgroup_nodes <- workgroup_patent_data %>%
  select(examiner_id) %>%
  distinct() %>%
  mutate(examiner_id = as.character(examiner_id))

workgroup_nodes
```

    ## # A tibble: 498 × 1
    ##    examiner_id
    ##    <chr>      
    ##  1 96082      
    ##  2 87678      
    ##  3 73788      
    ##  4 77294      
    ##  5 97543      
    ##  6 92931      
    ##  7 64507      
    ##  8 98520      
    ##  9 64900      
    ## 10 97461      
    ## # ℹ 488 more rows
…
